#FIG 3.2
Landscape
Center
Inches
Letter  
100.00
Single
-2
1200 2
6 600 5175 6225 5625
6 600 5175 1725 5625
2 2 0 1 0 7 100 0 -1 0.000 0 0 -1 0 0 5
	 600 5175 1725 5175 1725 5625 600 5625 600 5175
4 0 0 100 0 0 12 0.0000 4 135 810 750 5475 Oracle DB\001
-6
6 1875 5175 3375 5625
2 2 0 1 0 7 100 0 -1 0.000 0 0 -1 0 0 5
	 1875 5175 3375 5175 3375 5625 1875 5625 1875 5175
4 0 0 100 0 0 12 0.0000 4 180 1230 2025 5475 PostgreSQL DB\001
-6
6 3525 5175 4875 5625
2 2 0 1 0 7 100 0 -1 0.000 0 0 -1 0 0 5
	 3525 5175 4875 5175 4875 5625 3525 5625 3525 5175
4 0 0 100 0 0 12 0.0000 4 180 900 3675 5475 MySQL DB\001
-6
6 5025 5175 6225 5625
2 2 0 1 0 7 100 0 -1 0.000 0 0 -1 0 0 5
	 5025 5175 6225 5175 6225 5625 5025 5625 5025 5175
4 0 0 100 0 0 12 0.0000 4 135 915 5175 5475 Others DBs\001
-6
-6
6 4275 3300 5550 3750
4 0 0 100 0 0 12 0.0000 4 180 1185 4275 3450 Other programs\001
4 0 0 100 0 0 12 0.0000 4 180 1230 4275 3675 using gnome-db\001
-6
2 2 0 1 0 7 100 0 -1 0.000 0 0 -1 0 0 5
	 600 4200 6225 4200 6225 4725 600 4725 600 4200
2 1 0 1 0 7 100 0 -1 0.000 0 0 -1 1 1 2
	1 1 1.00 60.00 120.00
	1 1 1.00 60.00 120.00
	 1200 4725 1200 5175
2 1 0 1 0 7 100 0 -1 0.000 0 0 -1 1 1 2
	1 1 1.00 60.00 120.00
	1 1 1.00 60.00 120.00
	 2700 4725 2700 5175
2 1 0 1 0 7 100 0 -1 0.000 0 0 -1 1 1 2
	1 1 1.00 60.00 120.00
	1 1 1.00 60.00 120.00
	 4200 4725 4200 5175
2 1 0 1 0 7 100 0 -1 0.000 0 0 -1 1 1 2
	1 1 1.00 60.00 120.00
	1 1 1.00 60.00 120.00
	 5700 4725 5700 5175
2 1 0 1 0 7 100 0 -1 0.000 0 0 -1 1 1 2
	1 1 1.00 60.00 120.00
	1 1 1.00 60.00 120.00
	 2550 3750 2550 4200
2 1 0 1 0 7 100 0 -1 0.000 0 0 -1 1 1 2
	1 1 1.00 60.00 120.00
	1 1 1.00 60.00 120.00
	 4875 3750 4875 4200
2 2 0 1 0 7 100 0 -1 0.000 0 0 -1 0 0 5
	 1800 3300 3300 3300 3300 3750 1800 3750 1800 3300
2 2 0 1 0 7 100 0 -1 0.000 0 0 -1 0 0 5
	 3975 3300 5850 3300 5850 3750 3975 3750 3975 3300
4 0 0 100 0 0 12 0.0000 4 180 1635 2475 4500 gnome-db framework\001
4 0 0 100 0 0 12 0.0000 4 180 1200 1950 3525 gASQL session\001
